{
"urls": [
{
"url": "https://gitlab.com/mosdeve/1/-/raw/main/1.json",
"name": "🔥MOS定制线路"
},    
{
"url": "http://我不是.肥猫.love:63/接口禁止贩卖",
"name": "🔥线路①"
},
{
"url": "https://agit.ai/Yoursmile7/TVBox/raw/branch/master/XC.json",
"name": "🔥线路②"
},
{
"url":"http://itvbox.cc/tvbox/云星日记/1.m3u8",
"name": "线路③"
},
{
"url": "https://agit.ai/so/gao/raw/branch/master/0828.json",
"name": "线路④"
},
{
"url": "https://agit.ai/so/gao/raw/branch/master/0826.json",
"name": "线路⑤"
},
{
"url": "https://agit.ai/so/gao/raw/branch/master/0820.txt",
"name": "线路⑥"
},
{
"url": "https://agit.ai/nbwzlyd/xiaopingguo/raw/branch/master/xiaopingguo/xiaopingguo.json",
"name": "线路⑦"
},
{
"url": "https://github.moeyy.xyz/https://raw.githubusercontent.com/52670576/tvbox/main/ysc.json",
"name": "线路⑧"
},
{
"url": "https://agit.ai/so/gao/raw/branch/master/js.json",
"name": "线路⑨"
},
{
"url": "https://agit.ai/so/gao/raw/branch/master/xiaoxiao.json",
"name": "线路⑩"
},
{
"url": "http://home.jundie.top:81/top98.json",
"name": "线路①①"
},
{
"url": "https://yydsys.top/duo",
"name": "线路①②"
},
{
"url": "http://dxawi.github.io/0/0.json",
"name": "线路①③"
},
{
"url": "http://itvbox.cc/tvbox/云星日记/bili.m3u8",
"name": "线路①④"
},
{
"url": "http://itvbox.cc/tvbox/云星日记/ali.m3u8",
"name": "线路①⑤"
},
{
"url": "http://9xi4o.tk/0725.json",
"name": "线路①⑥"
},
{
"url": "http://刚刚.live/猫",
"name": "线路①⑦"
},
{
"url": "https://tvbox.cainisi.cf",
"name": "线路①⑧"
},
{
"url": "https://d.looks.wang/我爱夜猫子",
"name": "线路①⑨"
},
{
"url": "https://freed.yuanhsing.cf/TVBox/meowcf.json",
"name": "线路20"
},
{
"url": "https://download.kstore.space/download/2883/m3u8/dsj/guochan/mp1/1.m3u8",
"name": "线路②①"
},
{
"url": "http://52bsj.vip:98/wuai",
"name": "线路②②"
},
{
"url": "https://agit.ai/so/gao/raw/branch/master/xBPQ.json",
"name": "线路②③"
},
{
"url": "https://agit.ai/kvymin/TV/raw/branch/master/Box.json",
"name": "线路②④"
},
{
"url": "https://agit.ai/376242575/zzh/raw/branch/master/txt/影视.txt",
"name": "线路②⑤"
},
{
"url": "https://tv.5ye.cc",
"name": "线路②⑥"
},
{
"url": "https://agit.ai/cyl518/yl/raw/branch/master/ml.json",
"name": "线路②⑦"
},
{
"url": "https://la.kstore.space/download/3376/123.txt",
"name": "线路②⑧"
},
{
"url": "https://la.kstore.space/download/3376/w.txt",
"name": "线路②⑨"
},
{
"url": "https://ghproxy.com/https://raw.githubusercontent.com/dxawi/0/main/0.json",
"name": "线路30"
},
{
"url": "http://52bsj.vip:81/api/v3/file/get/29899/box2.json?sign=3cVyKZQr3lFAwdB3HK-A7h33e0MnmG6lLB9oWlvSNnM%3D%3A0",
"name": "线路③①"
},
{
"url": "https://la.kstore.space/download/2883/0110.txt",
"name": "线路③②"
},
{
"url": "https://raw.iqiq.io/lmlmi/lm/main/xbpq.json",
"name": "线路③③"
},
{
"url": "http://www.dmtv.ml/mao/single.json",
"name": "线路③④"
},
{
"url": "https://download.kstore.space/download/2863/01.txt",
"name": "线路③⑤"
},
{
"url": "https://download.kstore.space/download/3313/mao/ymz",
"name": "线路③⑥"
},
{
"url": "https://agit.ai/xx03253/xxu/raw/branch/main/xxtv.json",
"name": "线路③⑦"
},
{
"url": "https://raw.liucn.cc/box/m.json",
"name": "线路③⑧"
},
{
"url": "https://raw.fastgit.org/liu673cn/box/main/m.json",
"name": "线路③⑨"
},
{
"url": "https://agit.ai/mmmgit/tvbox/raw/branch/main/zzz1.json",
"name": "线路40"
},
{
"url": "http://pandown.pro/tvbox/tvbox.json",
"name": "线路④①"
},
{
"url": "https://agit.ai/767820774/gao/raw/branch/master/0826.json",
"name": "线路④②"
},
{
"url": "https://s2.pub/xqpg",
"name": "线路④③"
},
{
"url": "https://agit.ai/yu/bx/raw/branch/main/ysc.json",
"name": "线路④④"
},
{
"url": "http://home.jundie.top:81/TVBox/yosakoi.json",
"name": "线路④⑤"
},
{
"url": "http://饭太硬.ga/tv",
"name": "线路④⑥"
},
{
"url": "https://agit.ai/kuku/kot/raw/branch/master/0802.txt",
"name": "线路④⑦"
},
{
"url": "https://agit.ai/kvinsun/TVBOXZY/raw/branch/main/js.json",
"name": "线路④⑧"
},
{
"url": "https://max.lianyingtv.com/uploads/itvbox/api.json",
"name": "线路④⑨"
},
{
"url": "https://s2.pub/lm",
"name": "线路50"
}
]
}
